beginner_tutorial.knit
…
#changes col names
colnames(cardinal)=c("date","AvgT","MaxT","MinT","AvgLw","Tprep","AvgHum","AvgSm","AvgSt","AvgSr","AvgStp")

Making New Data

When does it Rain ?

#me making new data

cardinal$IfRain<- (cardinal$Tprep>0)
cardinal$IfRain<-as.factor(as.integer(cardinal$IfRain))
cardinal

## # A tibble: 729 x 12
##    date        AvgT  MaxT  MinT AvgLw Tprep AvgHum AvgSm AvgSt AvgSr AvgStp
##    <date>     <dbl> <dbl> <dbl> <dbl> <dbl>  <dbl> <dbl> <dbl> <dbl>  <dbl>
##  1 2020-01-01  43.1  53.6  35.1  266.  0      63.8  0.28  48.6 135.    999.
##  2 2020-01-02  44.9  55.4  35.2  274.  0.05   72.0  0.28  47.6  66.0  1003.
##  3 2020-01-03  52.8  64.9  45.7  362.  0.95   92.1  0.29  51    31.1   998.
##  4 2020-01-04  57.2  65.1  42.6  373   0.52   83.5  0.35  54.6  44.9   993.
##  5 2020-01-05  42.1  50.5  34.9  265.  0      57.0  0.33  48.3 135.   1005.
##  6 2020-01-06  44.1  58.5  32    265.  0      57.6  0.31  46.1 138.   1005.
##  7 2020-01-07  41.4  52    31.3  274.  0.07   75.2  0.3   44.6  40.9  1002.
##  8 2020-01-08  42.5  57.6  29.7  314.  0      58.9  0.3   43.3 136.   1010.
##  9 2020-01-09  40.4  50.5  31.3  265.  0      60.2  0.3   43.3 122.   1022.
## 10 2020-01-10  52    65.8  38.1  266.  0      73.5  0.29  46.1  74.6  1019.
## # ... with 719 more rows, and 1 more variable: IfRain <fct>
…
